pipeline/zs_clk_wave1.vcd
$date
	Wed Jun 15 14:51:38 2022
$end
$version
	Icarus Verilog
$end
$timescale
	1ns
$end
$scope module pipeline_cpu_test $end
$scope module PIPELINE_CPU $end
$var wire 32 ! address [31:0] $end
$var wire 1 " clock $end
$var wire 32 # data_in [31:0] $end
$var wire 32 $ data_out [31:0] $end
$var wire 1 % reset $end
$var wire 1 & zero $end
$var wire 2 ' s_num_write_ID [1:0] $end
$var wire 2 ( s_num_write [1:0] $end
$var wire 2 ) s_npc_ID [1:0] $end
$var wire 2 * s_npc [1:0] $end
$var wire 1 + s_i_instruction_ID $end
$var wire 1 , s_i_instruction_EXE $end
$var wire 1 - s_i_instruction $end
$var wire 2 . s_forwardB3_EXE [1:0] $end
$var wire 2 / s_forwardB3 [1:0] $end
$var wire 1 0 s_forwardB2_EXE $end
$var wire 1 1 s_forwardB2 $end
$var wire 2 2 s_forwardA3_EXE [1:0] $end
$var wire 2 3 s_forwardA3 [1:0] $end
$var wire 1 4 s_forwardA2_EXE $end
$var wire 1 5 s_forwardA2 $end
$var wire 1 6 s_ext_ID $end
$var wire 1 7 s_ext $end
$var wire 2 8 s_data_write_WB [1:0] $end
$var wire 2 9 s_data_write_MEM [1:0] $end
$var wire 2 : s_data_write_ID [1:0] $end
$var wire 2 ; s_data_write_EXE [1:0] $end
$var wire 2 < s_data_write [1:0] $end
$var wire 1 = s_b_ID $end
$var wire 1 > s_b_EXE $end
$var wire 1 ? s_b $end
$var wire 5 @ rt_ID [4:0] $end
$var wire 5 A rt_EXE [4:0] $end
$var wire 5 B rs_ID [4:0] $end
$var wire 5 C rs_EXE [4:0] $end
$var wire 1 D reg_write_WB $end
$var wire 1 E reg_write_MEM $end
$var wire 1 F reg_write_ID $end
$var wire 1 G reg_write_EXE $end
$var wire 1 H reg_write $end
$var wire 32 I reg2_MEM [31:0] $end
$var wire 32 J reg2_ID [31:0] $end
$var wire 32 K reg2_EXE [31:0] $end
$var wire 32 L reg1_ID [31:0] $end
$var wire 32 M reg1_EXE [31:0] $end
$var wire 5 N rd_ID [4:0] $end
$var wire 1 O pc_write $end
$var wire 32 P pc_4_WB [31:0] $end
$var wire 32 Q pc_4_MEM [31:0] $end
$var wire 32 R pc_4_ID [31:0] $end
$var wire 32 S pc_4_EXE [31:0] $end
$var wire 32 T pc [31:0] $end
$var wire 6 U op_ID [5:0] $end
$var wire 6 V op_EXE [5:0] $end
$var wire 6 W op [5:0] $end
$var wire 5 X num_write_WB [4:0] $end
$var wire 5 Y num_write_MEM [4:0] $end
$var wire 5 Z num_write_ID [4:0] $end
$var wire 5 [ num_write_EXE [4:0] $end
$var wire 32 \ npc [31:0] $end
$var wire 1 ] mem_write_MEM $end
$var wire 1 ^ mem_write_ID $end
$var wire 1 _ mem_write_EXE $end
$var wire 1 ` mem_write $end
$var wire 1 a mem_read_MEM $end
$var wire 1 b mem_read_ID $end
$var wire 1 c mem_read_EXE $end
$var wire 1 d mem_read $end
$var wire 32 e mem_out_WB [31:0] $end
$var wire 32 f mem_out_MEM [31:0] $end
$var wire 32 g instruction [31:0] $end
$var wire 26 h instr_index_ID [25:0] $end
$var wire 16 i imm_ID [15:0] $end
$var wire 1 j if_id_write $end
$var wire 1 k if_id_flush $end
$var wire 1 l id_exe_flush $end
$var wire 6 m funct [5:0] $end
$var wire 32 n forward_reg2 [31:0] $end
$var wire 32 o forward_reg1 [31:0] $end
$var wire 32 p ext_imm_ID [31:0] $end
$var wire 32 q ext_imm_EXE [31:0] $end
$var wire 32 r data_write [31:0] $end
$var wire 32 s b [31:0] $end
$var wire 4 t aluop_ID [3:0] $end
$var wire 4 u aluop_EXE [3:0] $end
$var wire 4 v aluop [3:0] $end
$var wire 32 w alu_out_WB [31:0] $end
$var wire 32 x alu_out_MEM [31:0] $end
$var wire 32 y alu_out_EXE [31:0] $end
$var wire 32 z a [31:0] $end
$scope module ALU $end
$var wire 32 { a [31:0] $end
$var wire 32 | and_result [31:0] $end
$var wire 32 } b [31:0] $end
$var wire 32 ~ or_result [31:0] $end
$var wire 1 & zero $end
$var wire 32 !" subu_result [31:0] $end
$var wire 32 "" slt_result [31:0] $end
$var wire 32 #" lui_result [31:0] $end
$var wire 4 $" aluop [3:0] $end
$var wire 32 %" addu_result [31:0] $end
$var wire 32 &" add_result [31:0] $end
$var reg 32 '" c [31:0] $end
$upscope $end
$scope module CTRL $end
$var wire 6 (" funct [5:0] $end
$var wire 6 )" op [5:0] $end
$var reg 4 *" aluop [3:0] $end
$var reg 1 ` mem_write $end
$var reg 1 H reg_write $end
$var reg 1 ? s_b $end
$var reg 2 +" s_data_write [1:0] $end
$var reg 1 7 s_ext $end
$var reg 2 ," s_npc [1:0] $end
$var reg 2 -" s_num_write [1:0] $end
$upscope $end
$scope module DM $end
$var wire 1 " clock $end
$var wire 32 ." data_out [31:0] $end
$var wire 1 ] mem_write $end
$var wire 32 /" data_in [31:0] $end
$var wire 32 0" address [31:0] $end
$upscope $end
$scope module EXE_MEM $end
$var wire 32 1" alu_in [31:0] $end
$var wire 1 " clock $end
$var wire 1 % reset $end
$var wire 2 2" s_data_write_in [1:0] $end
$var wire 1 G reg_write_in $end
$var wire 32 3" pc_4 [31:0] $end
$var wire 5 4" num_write_in [4:0] $end
$var wire 1 _ mem_write_in $end
$var wire 1 c mem_read_in $end
$var wire 32 5" data_in [31:0] $end
$var reg 32 6" alu_out [31:0] $end
$var reg 32 7" data_out [31:0] $end
$var reg 1 a mem_read_out $end
$var reg 1 ] mem_write_out $end
$var reg 5 8" num_write_out [4:0] $end
$var reg 32 9" pc_4_out [31:0] $end
$var reg 1 E reg_write_out $end
$var reg 2 :" s_data_write_out [1:0] $end
$upscope $end
$scope module EXT $end
$var wire 1 6 s_ext $end
$var wire 16 ;" imm [15:0] $end
$var wire 32 <" ext_imm [31:0] $end
$upscope $end
$scope module GPR $end
$var wire 32 =" a [31:0] $end
$var wire 32 >" b [31:0] $end
$var wire 1 " clock $end
$var wire 32 ?" data_write [31:0] $end
$var wire 5 @" rt [4:0] $end
$var wire 5 A" rs [4:0] $end
$var wire 1 D reg_write $end
$var wire 5 B" num_write [4:0] $end
$upscope $end
$scope module HAZARD $end
$var wire 1 " clock $end
$var wire 1 % reset $end
$var wire 2 C" s_npc [1:0] $end
$var wire 1 + s_i_instruction_ID $end
$var wire 5 D" rt_ID [4:0] $end
$var wire 5 E" rs_ID [4:0] $end
$var wire 5 F" num_write_EXE [4:0] $end
$var wire 1 b mem_read_ID $end
$var wire 1 c mem_read_EXE $end
$var wire 1 G" flag1 $end
$var wire 1 H" flag $end
$var reg 1 l id_exe_flush $end
$var reg 1 k if_id_flush $end
$var reg 1 j if_id_write $end
$var reg 1 O pc_write $end
$upscope $end
$scope module ID_EXE $end
$var wire 1 " clock $end
$var wire 32 I" data_1 [31:0] $end
$var wire 32 J" data_2 [31:0] $end
$var wire 32 K" ext_imm_in [31:0] $end
$var wire 1 l id_exe_flush $end
$var wire 5 L" num_write_in [4:0] $end
$var wire 1 % reset $end
$var wire 1 + s_i_instruction_in $end
$var wire 2 M" s_forwardB3 [1:0] $end
$var wire 1 1 s_forwardB2 $end
$var wire 2 N" s_forwardA3 [1:0] $end
$var wire 1 5 s_forwardA2 $end
$var wire 2 O" s_data_write_in [1:0] $end
$var wire 1 = s_b_in $end
$var wire 5 P" rt_in [4:0] $end
$var wire 5 Q" rs_in [4:0] $end
$var wire 1 F reg_write_in $end
$var wire 32 R" pc_4 [31:0] $end
$var wire 6 S" op_in [5:0] $end
$var wire 1 ^ mem_write_in $end
$var wire 1 b mem_read_in $end
$var wire 4 T" aluop_in [3:0] $end
$var reg 4 U" aluop_out [3:0] $end
$var reg 32 V" data_1_out [31:0] $end
$var reg 32 W" data_2_out [31:0] $end
$var reg 32 X" ext_imm_out [31:0] $end
$var reg 1 c mem_read_out $end
$var reg 1 _ mem_write_out $end
$var reg 5 Y" num_write_out [4:0] $end
$var reg 6 Z" op_out [5:0] $end
$var reg 32 [" pc_4_out [31:0] $end
$var reg 1 G reg_write_out $end
$var reg 5 \" rs_out [4:0] $end
$var reg 5 ]" rt_out [4:0] $end
$var reg 1 > s_b_out $end
$var reg 2 ^" s_data_write_out [1:0] $end
$var reg 1 4 s_forwardA2_out $end
$var reg 2 _" s_forwardA3_out [1:0] $end
$var reg 1 0 s_forwardB2_out $end
$var reg 2 `" s_forwardB3_out [1:0] $end
$var reg 1 , s_i_instruction_out $end
$upscope $end
$scope module IF_ID $end
$var wire 4 a" aluop_in [3:0] $end
$var wire 1 " clock $end
$var wire 1 k if_id_flush $end
$var wire 1 j if_id_write $end
$var wire 1 d mem_read_in $end
$var wire 1 ` mem_write_in $end
$var wire 6 b" op_in [5:0] $end
$var wire 1 H reg_write_in $end
$var wire 1 % reset $end
$var wire 1 ? s_b_in $end
$var wire 2 c" s_data_write_in [1:0] $end
$var wire 1 7 s_ext_in $end
$var wire 1 - s_i_instruction_in $end
$var wire 2 d" s_npc_in [1:0] $end
$var wire 2 e" s_num_write_in [1:0] $end
$var wire 32 f" pc_4 [31:0] $end
$var wire 32 g" instruction [31:0] $end
$var reg 4 h" aluop_out [3:0] $end
$var reg 16 i" imm [15:0] $end
$var reg 26 j" instr_index [25:0] $end
$var reg 1 b mem_read_out $end
$var reg 1 ^ mem_write_out $end
$var reg 6 k" op_out [5:0] $end
$var reg 32 l" pc_4_out [31:0] $end
$var reg 5 m" rd [4:0] $end
$var reg 1 F reg_write_out $end
$var reg 5 n" rs [4:0] $end
$var reg 5 o" rt [4:0] $end
$var reg 1 = s_b_out $end
$var reg 2 p" s_data_write_out [1:0] $end
$var reg 1 6 s_ext_out $end
$var reg 1 + s_i_instruction_out $end
$var reg 2 q" s_npc_out [1:0] $end
$var reg 2 r" s_num_write_out [1:0] $end
$upscope $end
$scope module IM $end
$var wire 32 s" instruction [31:0] $end
$var wire 32 t" pc [31:0] $end
$upscope $end
$scope module MEM_WB $end
$var wire 32 u" alu_in [31:0] $end
$var wire 1 " clock $end
$var wire 32 v" mem_in [31:0] $end
$var wire 5 w" num_write_in [4:0] $end
$var wire 32 x" pc_4 [31:0] $end
$var wire 1 E reg_write_in $end
$var wire 1 % reset $end
$var wire 2 y" s_data_write_in [1:0] $end
$var reg 32 z" alu_out [31:0] $end
$var reg 32 {" mem_out [31:0] $end
$var reg 5 |" num_write_out [4:0] $end
$var reg 32 }" pc_4_out [31:0] $end
$var reg 1 D reg_write_out $end
$var reg 2 ~" s_data_write_out [1:0] $end
$upscope $end
$scope module NPC $end
$var wire 26 !# instr_index [25:0] $end
$var wire 32 "# pc_gpr [31:0] $end
$var wire 2 ## s_npc [1:0] $end
$var wire 1 & zero $end
$var wire 32 $# pc [31:0] $end
$var reg 32 %# npc [31:0] $end
$upscope $end
$scope module PC $end
$var wire 1 " clock $end
$var wire 32 &# npc [31:0] $end
$var wire 1 O pc_write $end
$var wire 1 % reset $end
$var reg 32 '# pc [31:0] $end
$upscope $end
$scope module SIDE_ROAD $end
$var wire 5 (# num_write_EXE [4:0] $end
$var wire 5 )# num_write_ID [4:0] $end
$var wire 5 *# num_write_MEM [4:0] $end
$var wire 5 +# num_write_WB [4:0] $end
$var wire 6 ,# op_EXE [5:0] $end
$var wire 1 G reg_write_EXE $end
$var wire 1 E reg_write_MEM $end
$var wire 5 -# rs_EXE [4:0] $end
$var wire 5 .# rs_ID [4:0] $end
$var wire 5 /# rt_EXE [4:0] $end
$var wire 5 0# rt_ID [4:0] $end
$var wire 1 1# s_i_instruction_EXE $end
$var wire 2 2# s_forwardB3 [1:0] $end
$var wire 1 1 s_forwardB2 $end
$var wire 2 3# s_forwardA3 [1:0] $end
$var wire 1 5 s_forwardA2 $end
$upscope $end
$upscope $end
$upscope $end
$enddefinitions $end
#50
$dumpvars
b1 3#
b11 2#
z1#
b0 0#
b0 /#
b0 .#
b0 -#
b0 ,#
b0 +#
b0 *#
b0 )#
b0 (#
b11000000000000 '#
b11000000000100 &#
b11000000000100 %#
b11000000000000 $#
b11 ##
b0 "#
b0 !#
b0 ~"
b0 }"
b0 |"
b0 {"
b0 z"
b0 y"
b0 x"
b0 w"
b0 v"
b0 u"
b11000000000000 t"
b10101100000000100000000000000000 s"
b0 r"
b11 q"
bx p"
b0 o"
b0 n"
b0 m"
b0 l"
b0 k"
b0 j"
b0 i"
bx h"
b10101100000000100000000000000000 g"
b11000000000100 f"
b0 e"
b11 d"
b1 c"
b101011 b"
b1 a"
bx `"
bx _"
b0 ^"
b0 ]"
b0 \"
b0 ["
b0 Z"
b0 Y"
b0 X"
b0 W"
b0 V"
bx U"
bx T"
b0 S"
b0 R"
b0 Q"
b0 P"
bx O"
b1 N"
b11 M"
b0 L"
b0 K"
b0 J"
b0 I"
xH"
0G"
b0 F"
b0 E"
b0 D"
b11 C"
b0 B"
b0 A"
b0 @"
b0 ?"
b0 >"
b0 ="
b0 <"
b0 ;"
b0 :"
b0 9"
b0 8"
b0 7"
b0 6"
b0 5"
b0 4"
b0 3"
b0 2"
b0 1"
b0 0"
b0 /"
b0 ."
b0 -"
b11 ,"
b1 +"
b1 *"
b101011 )"
b0 ("
b0 '"
b0 &"
b0 %"
bx $"
b0 #"
b0 ""
b0 !"
b0 ~
b0 }
b0 |
b0 {
b0 z
b0 y
b0 x
b0 w
b1 v
bx u
bx t
b0 s
b0 r
b0 q
b0 p
b0 o
b0 n
b0 m
0l
0k
1j
b0 i
b0 h
b10101100000000100000000000000000 g
b0 f
b0 e
0d
xc
0b
0a
1`
0_
0^
0]
b11000000000100 \
b0 [
b0 Z
b0 Y
b0 X
b101011 W
b0 V
b0 U
b11000000000000 T
b0 S
b0 R
b0 Q
b0 P
1O
b0 N
b0 M
b0 L
b0 K
b0 J
b0 I
0H
0G
1F
0E
0D
b0 C
b0 B
b0 A
b0 @
1?
x>
x=
b1 <
b0 ;
bx :
b0 9
b0 8
17
x6
05
x4
b1 3
bx 2
01
x0
b11 /
bx .
0-
x,
x+
b11 *
b11 )
b0 (
b0 '
1&
0%
bz $
bz #
1"
bz !
$end
#100
0"
#150
0?
b0 v
b0 *"
b0 a"
0`
1H
b1 (
b1 -"
b1 e"
b10 n
b10 J"
b0 W
b0 )"
b0 b"
b100000 m
b100000 ("
0H"
11
b10 Z
b10 L"
b10 )#
b10000110000100000100000 g
b10000110000100000100000 g"
b10000110000100000100000 s"
b11000000001000 \
b11000000001000 f"
b11000000001000 %#
b11000000001000 &#
xa
00
04
b11 .
b11 `"
b1 2
b1 _"
bx ;
bx 2"
bx ^"
1G
0c
0+
b10 J
b10 >"
b10 @
b10 @"
b10 D"
b10 P"
b10 o"
b10 0#
b100000000000000000 h
b100000000000000000 j"
b100000000000000000 !#
b11000000000100 R
b11000000000100 R"
b11000000000100 l"
1^
b1 :
b1 O"
b1 p"
16
0F
1=
b101011 U
b101011 S"
b101011 k"
b1 t
b1 T"
b1 h"
b11000000000100 T
b11000000000100 t"
b11000000000100 $#
b11000000000100 '#
1"
1%
#200
0"
#250
b11 v
b11 *"
b11 a"
b100011 m
b100011 ("
b10 o
b10 I"
b10 "#
b101000010010000000100011 g
b101000010010000000100011 g"
b101000010010000000100011 s"
15
b1 Z
b1 L"
b1 )#
b11 n
b11 J"
b11000000001100 \
b11000000001100 f"
b11000000001100 %#
b11000000001100 &#
b100000100000 p
b100000100000 <"
b100000100000 K"
b10 3
b10 N"
b10 3#
b11000000001000 T
b11000000001000 t"
b11000000001000 $#
b11000000001000 '#
b1 N
b1 m"
b11 J
b11 >"
b11 @
b11 @"
b11 D"
b11 P"
b11 o"
b11 0#
b10 L
b10 ="
b10 B
b10 A"
b10 E"
b10 Q"
b10 n"
b10 .#
b10000110000100000100000 h
b10000110000100000100000 j"
b10000110000100000100000 !#
b100000100000 i
b100000100000 ;"
b100000100000 i"
b11000000001000 R
b11000000001000 R"
b11000000001000 l"
0^
b1 '
b1 r"
1F
0=
b0 U
b0 S"
b0 k"
b0 t
b0 T"
b0 h"
b101011 V
b101011 Z"
b101011 ,#
10
0,
b1 u
b1 $"
b1 U"
b10 [
b10 4"
b10 F"
b10 Y"
b10 (#
b10 K
b10 5"
b10 W"
b11000000000100 S
b11000000000100 3"
b11000000000100 ["
1_
b1 ;
b1 2"
b1 ^"
1>
0G
b10 A
b10 ]"
b10 /#
bx 9
bx :"
bx y"
1E
0a
1"
#300
0"
#350
0&
b100 v
b100 *"
b100 a"
b0 /
b0 M"
b0 2#
b1 ""
b100100 m
b100100 ("
b11 ~
b10 |
b110000000000000000 #"
b1010010011100000100100 g
b1010010011100000100100 g"
b1010010011100000100100 s"
b10 3
b10 N"
b10 3#
b10 z
b10 {
b101 y
b101 '"
b101 1"
b101 %"
b11111111111111111111111111111111 !"
b101 &"
b11 s
b11 }
b100 Z
b100 L"
b100 )#
b1 n
b1 J"
b101 o
b101 I"
b101 "#
b10000000100011 p
b10000000100011 <"
b10000000100011 K"
b11000000010000 \
b11000000010000 f"
b11000000010000 %#
b11000000010000 &#
bx 8
bx ~"
1D
b10 Y
b10 8"
b10 w"
b10 *#
b10 I
b10 /"
b10 7"
b11000000000100 Q
b11000000000100 9"
b11000000000100 x"
1]
b1 9
b1 :"
b1 y"
0E
b0 V
b0 Z"
b0 ,#
14
b10 2
b10 _"
b0 u
b0 $"
b0 U"
b1 [
b1 4"
b1 F"
b1 Y"
b1 (#
b100000100000 q
b100000100000 X"
b11 K
b11 5"
b11 W"
b10 M
b10 V"
b11000000001000 S
b11000000001000 3"
b11000000001000 ["
0_
0>
1G
b11 A
b11 ]"
b11 /#
b10 C
b10 \"
b10 -#
b100 N
b100 m"
b1 J
b1 >"
b1 @
b1 @"
b1 D"
b1 P"
b1 o"
b1 0#
b101 L
b101 ="
b101 B
b101 A"
b101 E"
b101 Q"
b101 n"
b101 .#
b101000010010000000100011 h
b101000010010000000100011 j"
b101000010010000000100011 !#
b10000000100011 i
b10000000100011 ;"
b10000000100011 i"
b11000000001100 R
b11000000001100 R"
b11000000001100 l"
b11 t
b11 T"
b11 h"
b11000000001100 T
b11000000001100 t"
b11000000001100 $#
b11000000001100 '#
1"
#400
0"
#450
b101 v
b101 *"
b101 a"
1&
b100101 m
b100101 ("
b1 3
b1 N"
b1 3#
b11 /
b11 M"
b11 2#
b1010000000000000000 #"
b111000010011000000100101 g
b111000010011000000100101 g"
b111000010011000000100101 s"
b101 s
b101 }
b101 ~
b101 |
b0 ""
b111 Z
b111 L"
b111 )#
b1001 n
b1001 J"
b1 o
b1 I"
b1 "#
b11000000010100 \
b11000000010100 f"
b11000000010100 %#
b11000000010100 &#
b11100000100100 p
b11100000100100 <"
b11100000100100 K"
b0 y
b0 '"
b0 1"
b1010 %"
b0 !"
b1010 &"
b101 z
b101 {
b1 f
b1 ."
b1 v"
b11000000010000 T
b11000000010000 t"
b11000000010000 $#
b11000000010000 '#
b111 N
b111 m"
b1001 J
b1001 >"
b1001 @
b1001 @"
b1001 D"
b1001 P"
b1001 o"
b1001 0#
b1 L
b1 ="
b1 B
b1 A"
b1 E"
b1 Q"
b1 n"
b1 .#
b1010010011100000100100 h
b1010010011100000100100 j"
b1010010011100000100100 !#
b11100000100100 i
b11100000100100 ;"
b11100000100100 i"
b11000000010000 R
b11000000010000 R"
b11000000010000 l"
b100 t
b100 T"
b100 h"
b0 .
b0 `"
b11 u
b11 $"
b11 U"
b100 [
b100 4"
b100 F"
b100 Y"
b100 (#
b10000000100011 q
b10000000100011 X"
b1 K
b1 5"
b1 W"
b101 M
b101 V"
b11000000001100 S
b11000000001100 3"
b11000000001100 ["
b1 A
b1 ]"
b1 /#
b101 C
b101 \"
b101 -#
b1 Y
b1 8"
b1 w"
b1 *#
b11 I
b11 /"
b11 7"
b101 x
b101 0"
b101 6"
b101 u"
b11000000001000 Q
b11000000001000 9"
b11000000001000 x"
0]
1E
b10 X
b10 B"
b10 |"
b10 +#
b11000000000100 P
b11000000000100 }"
b1 8
b1 ~"
0D
1"
#500
0"
#550
1-
0&
b0 (
b0 -"
b0 e"
1?
b1 v
b1 *"
b1 a"
b10010000000000000000 #"
b1101 ~
b1 |
b1 ""
b0 3
b0 N"
b0 3#
b1001 W
b1001 )"
b1001 b"
b100100 m
b100100 ("
01
b101 r
b101 ?"
b1001 s
b1001 }
b1110 %"
b11111111111111111111111111111100 !"
b1110 &"
b101 z
b101 {
b100100111010100000000001100100 g
b100100111010100000000001100100 g"
b100100111010100000000001100100 s"
b10 f
b10 ."
b10 v"
b1 y
b1 '"
b1 1"
b110 Z
b110 L"
b110 )#
b101 n
b101 J"
b111 o
b111 I"
b111 "#
b11000000100101 p
b11000000100101 <"
b11000000100101 K"
b11000000011000 \
b11000000011000 f"
b11000000011000 %#
b11000000011000 &#
b1 X
b1 B"
b1 |"
b1 +#
b1 e
b1 {"
b101 w
b101 z"
b11000000001000 P
b11000000001000 }"
1D
b100 Y
b100 8"
b100 w"
b100 *#
b1 I
b1 /"
b1 7"
b0 x
b0 0"
b0 6"
b0 u"
b11000000001100 Q
b11000000001100 9"
b11000000001100 x"
b11 .
b11 `"
b1 2
b1 _"
b100 u
b100 $"
b100 U"
b111 [
b111 4"
b111 F"
b111 Y"
b111 (#
b11100000100100 q
b11100000100100 X"
b1001 K
b1001 5"
b1001 W"
b1 M
b1 V"
b11000000010000 S
b11000000010000 3"
b11000000010000 ["
b1001 A
b1001 ]"
b1001 /#
b1 C
b1 \"
b1 -#
b110 N
b110 m"
b1 J
b1 >"
b1 @
b1 @"
b1 D"
b1 P"
b1 o"
b1 0#
b111 L
b111 ="
b111 B
b111 A"
b111 E"
b111 Q"
b111 n"
b111 .#
b111000010011000000100101 h
b111000010011000000100101 j"
b111000010011000000100101 !#
b11000000100101 i
b11000000100101 ;"
b11000000100101 i"
b11000000010100 R
b11000000010100 R"
b11000000010100 l"
b101 t
b101 T"
b101 h"
b11000000010100 T
b11000000010100 t"
b11000000010100 $#
b11000000010100 '#
1"
#600
0"
#650
07
b101 v
b101 *"
b101 a"
b1101 W
b1101 )"
b1101 b"
b10101 m
b10101 ("
b1 3
b1 N"
b1 3#
b101 ~
b1010000000000000000 #"
b1010 n
b1010 J"
b110100111011000101010101010101 g
b110100111011000101010101010101 g"
b110100111011000101010101010101 s"
b1 z
b1 {
b110 %"
b11111111111111111111111111111100 !"
b110 &"
b101 s
b101 }
11
b0 r
b0 ?"
b1010 Z
b1010 L"
b1010 )#
b11000000011100 \
b11000000011100 f"
b11000000011100 %#
b11000000011100 &#
b1100100 p
b1100100 <"
b1100100 K"
b101 y
b101 '"
b101 1"
b11000000011000 T
b11000000011000 t"
b11000000011000 $#
b11000000011000 '#
1+
b0 N
b0 m"
b1010 J
b1010 >"
b1010 @
b1010 @"
b1010 D"
b1010 P"
b1010 o"
b1010 0#
b111010100000000001100100 h
b111010100000000001100100 j"
b111010100000000001100100 !#
b1100100 i
b1100100 ;"
b1100100 i"
b11000000011000 R
b11000000011000 R"
b11000000011000 l"
b0 '
b0 r"
1=
b1001 U
b1001 S"
b1001 k"
b1 t
b1 T"
b1 h"
00
b0 2
b0 _"
b101 u
b101 $"
b101 U"
b110 [
b110 4"
b110 F"
b110 Y"
b110 (#
b11000000100101 q
b11000000100101 X"
b101 K
b101 5"
b101 W"
b111 M
b111 V"
b11000000010100 S
b11000000010100 3"
b11000000010100 ["
b1 A
b1 ]"
b1 /#
b111 C
b111 \"
b111 -#
b111 Y
b111 8"
b111 w"
b111 *#
b1001 I
b1001 /"
b1001 7"
b1 x
b1 0"
b1 6"
b1 u"
b11000000010000 Q
b11000000010000 9"
b11000000010000 x"
b100 X
b100 B"
b100 |"
b100 +#
b10 e
b10 {"
b0 w
b0 z"
b11000000001100 P
b11000000001100 }"
1"
#700
0"
#750
0-
1d
b10 <
b10 +"
b10 c"
17
b1 v
b1 *"
b1 a"
b1 o
b1 I"
b1 "#
b10 3
b10 N"
b10 3#
b100011 W
b100011 )"
b100011 b"
b0 m
b0 ("
05
b1 r
b1 ?"
b1 z
b1 {
b1100101 ~
b0 |
b11001000000000000000000 #"
b1100 Z
b1100 L"
b1100 )#
b10001100000011010000000000000000 g
b10001100000011010000000000000000 g"
b10001100000011010000000000000000 s"
b1 f
b1 ."
b1 v"
b1100101 y
b1100101 '"
b1100101 1"
b1100101 %"
b11111111111111111111111110011101 !"
b1100101 &"
b1100100 s
b1100100 }
b1100 n
b1100 J"
b101010101010101 p
b101010101010101 <"
b101010101010101 K"
b11000000100000 \
b11000000100000 f"
b11000000100000 %#
b11000000100000 &#
b111 X
b111 B"
b111 |"
b111 +#
b1 w
b1 z"
b11000000010000 P
b11000000010000 }"
b110 Y
b110 8"
b110 w"
b110 *#
b101 I
b101 /"
b101 7"
b101 x
b101 0"
b101 6"
b101 u"
b11000000010100 Q
b11000000010100 9"
b11000000010100 x"
b1001 V
b1001 Z"
b1001 ,#
10
1,
b1 2
b1 _"
b1 u
b1 $"
b1 U"
b1010 [
b1010 4"
b1010 F"
b1010 Y"
b1010 (#
b1100100 q
b1100100 X"
b1010 K
b1010 5"
b1010 W"
b11000000011000 S
b11000000011000 3"
b11000000011000 ["
1>
b1010 A
b1010 ]"
b1010 /#
b1010 N
b1010 m"
b1100 J
b1100 >"
b1100 @
b1100 @"
b1100 D"
b1100 P"
b1100 o"
b1100 0#
b111011000101010101010101 h
b111011000101010101010101 j"
b111011000101010101010101 !#
b101010101010101 i
b101010101010101 ;"
b101010101010101 i"
b11000000011100 R
b11000000011100 R"
b11000000011100 l"
06
b1101 U
b1101 S"
b1101 k"
b101 t
b101 T"
b101 h"
b11000000011100 T
b11000000011100 t"
b11000000011100 $#
b11000000011100 '#
1"
#800
0"
#850
0d
b1 <
b1 +"
b1 c"
0?
b0 v
b0 *"
b0 a"
b1 (
b1 -"
b1 e"
b0 W
b0 )"
b0 b"
b100000 m
b100000 ("
b101010101010101 y
b101010101010101 '"
b101010101010101 1"
b0 o
b0 I"
b0 "#
b1101010100111100000100000 g
b1101010100111100000100000 g"
b1101010100111100000100000 s"
b1101 Z
b1101 L"
b1101 )#
b101010101010101 ~
b1 |
b1010101010101010000000000000000 #"
15
b101 r
b101 ?"
b1101 n
b1101 J"
b11000000100100 \
b11000000100100 f"
b11000000100100 %#
b11000000100100 &#
b0 p
b0 <"
b0 K"
b101010101010110 %"
b11111111111111111010101010101100 !"
b101010101010110 &"
b101010101010101 s
b101010101010101 }
b11001 f
b11001 ."
b11001 v"
b11000000100000 T
b11000000100000 t"
b11000000100000 $#
b11000000100000 '#
0+
b0 N
b0 m"
b1101 J
b1101 >"
b1101 @
b1101 @"
b1101 D"
b1101 P"
b1101 o"
b1101 0#
b0 L
b0 ="
b0 B
b0 A"
b0 E"
b0 Q"
b0 n"
b0 .#
b11010000000000000000 h
b11010000000000000000 j"
b11010000000000000000 !#
b0 i
b0 ;"
b0 i"
b11000000100000 R
b11000000100000 R"
b11000000100000 l"
b10 :
b10 O"
b10 p"
16
b100011 U
b100011 S"
b100011 k"
b1 t
b1 T"
b1 h"
1b
b1101 V
b1101 Z"
b1101 ,#
04
b10 2
b10 _"
b101 u
b101 $"
b101 U"
b1100 [
b1100 4"
b1100 F"
b1100 Y"
b1100 (#
b101010101010101 q
b101010101010101 X"
b1100 K
b1100 5"
b1100 W"
b1 M
b1 V"
b11000000011100 S
b11000000011100 3"
b11000000011100 ["
b1100 A
b1100 ]"
b1100 /#
b1010 Y
b1010 8"
b1010 w"
b1010 *#
b1010 I
b1010 /"
b1010 7"
b1100101 x
b1100101 0"
b1100101 6"
b1100101 u"
b11000000011000 Q
b11000000011000 9"
b11000000011000 x"
b110 X
b110 B"
b110 |"
b110 +#
b1 e
b1 {"
b101 w
b101 z"
b11000000010100 P
b11000000010100 }"
1"
#900
0"
