pipeline/zs_clk_wave.vcd
$date
	Wed Jun 15 21:08:02 2022
$end
$version
	Icarus Verilog
$end
$timescale
	1ns
$end
$scope module pipeline_cpu_test $end
$scope module PIPELINE_CPU $end
$var wire 32 ! address [31:0] $end
$var wire 1 " clock $end
$var wire 32 # data_in [31:0] $end
$var wire 32 $ data_out [31:0] $end
$var wire 1 % reset $end
$var wire 1 & zero $end
$var wire 2 ' s_num_write_ID [1:0] $end
$var wire 2 ( s_num_write [1:0] $end
$var wire 2 ) s_npc_ID [1:0] $end
$var wire 2 * s_npc [1:0] $end
$var wire 1 + s_i_instruction_ID $end
$var wire 1 , s_i_instruction_EXE $end
$var wire 1 - s_i_instruction $end
$var wire 2 . s_forwardB3_EXE [1:0] $end
$var wire 2 / s_forwardB3 [1:0] $end
$var wire 2 0 s_forwardB2_EXE [1:0] $end
$var wire 2 1 s_forwardB2 [1:0] $end
$var wire 2 2 s_forwardA3_EXE [1:0] $end
$var wire 2 3 s_forwardA3 [1:0] $end
$var wire 2 4 s_forwardA2_EXE [1:0] $end
$var wire 2 5 s_forwardA2 [1:0] $end
$var wire 1 6 s_ext_ID $end
$var wire 1 7 s_ext $end
$var wire 2 8 s_data_write_WB [1:0] $end
$var wire 2 9 s_data_write_MEM [1:0] $end
$var wire 2 : s_data_write_ID [1:0] $end
$var wire 2 ; s_data_write_EXE [1:0] $end
$var wire 2 < s_data_write [1:0] $end
$var wire 1 = s_b_ID $end
$var wire 1 > s_b_EXE $end
$var wire 1 ? s_b $end
$var wire 5 @ rt_ID [4:0] $end
$var wire 5 A rt_EXE [4:0] $end
$var wire 5 B rs_ID [4:0] $end
$var wire 5 C rs_EXE [4:0] $end
$var wire 1 D reg_write_WB $end
$var wire 1 E reg_write_MEM $end
$var wire 1 F reg_write_ID $end
$var wire 1 G reg_write_EXE $end
$var wire 1 H reg_write $end
$var wire 32 I reg2_MEM [31:0] $end
$var wire 32 J reg2_ID [31:0] $end
$var wire 32 K reg2_EXE [31:0] $end
$var wire 32 L reg1_ID [31:0] $end
$var wire 32 M reg1_EXE [31:0] $end
$var wire 5 N rd_ID [4:0] $end
$var wire 1 O pc_write $end
$var wire 32 P pc_4_WB [31:0] $end
$var wire 32 Q pc_4_MEM [31:0] $end
$var wire 32 R pc_4_ID [31:0] $end
$var wire 32 S pc_4_EXE [31:0] $end
$var wire 32 T pc [31:0] $end
$var wire 6 U op_ID [5:0] $end
$var wire 6 V op_EXE [5:0] $end
$var wire 6 W op [5:0] $end
$var wire 5 X num_write_WB [4:0] $end
$var wire 5 Y num_write_MEM [4:0] $end
$var wire 5 Z num_write_ID [4:0] $end
$var wire 5 [ num_write_EXE [4:0] $end
$var wire 32 \ npc [31:0] $end
$var wire 1 ] mem_write_MEM $end
$var wire 1 ^ mem_write_ID $end
$var wire 1 _ mem_write_EXE $end
$var wire 1 ` mem_write $end
$var wire 1 a mem_read_MEM $end
$var wire 1 b mem_read_ID $end
$var wire 1 c mem_read_EXE $end
$var wire 1 d mem_read $end
$var wire 32 e mem_out_WB [31:0] $end
$var wire 32 f mem_out_MEM [31:0] $end
$var wire 32 g mem_data_in [31:0] $end
$var wire 32 h instruction [31:0] $end
$var wire 26 i instr_index_ID [25:0] $end
$var wire 16 j imm_ID [15:0] $end
$var wire 1 k if_id_write $end
$var wire 1 l if_id_flush $end
$var wire 1 m id_exe_flush $end
$var wire 6 n funct [5:0] $end
$var wire 32 o forward_reg2 [31:0] $end
$var wire 32 p forward_reg1 [31:0] $end
$var wire 32 q ext_imm_ID [31:0] $end
$var wire 32 r ext_imm_EXE [31:0] $end
$var wire 32 s data_write [31:0] $end
$var wire 32 t b [31:0] $end
$var wire 4 u aluop_ID [3:0] $end
$var wire 4 v aluop_EXE [3:0] $end
$var wire 4 w aluop [3:0] $end
$var wire 32 x alu_out_WB [31:0] $end
$var wire 32 y alu_out_MEM [31:0] $end
$var wire 32 z alu_out_EXE [31:0] $end
$var wire 32 { a [31:0] $end
$scope module ALU $end
$var wire 32 | a [31:0] $end
$var wire 32 } and_result [31:0] $end
$var wire 32 ~ b [31:0] $end
$var wire 32 !" or_result [31:0] $end
$var wire 1 "" zero $end
$var wire 32 #" subu_result [31:0] $end
$var wire 32 $" slt_result [31:0] $end
$var wire 32 %" lui_result [31:0] $end
$var wire 4 &" aluop [3:0] $end
$var wire 32 '" addu_result [31:0] $end
$var wire 32 (" add_result [31:0] $end
$var reg 32 )" c [31:0] $end
$upscope $end
$scope module CTRL $end
$var wire 6 *" funct [5:0] $end
$var wire 6 +" op [5:0] $end
$var wire 1 % reset $end
$var reg 4 ," aluop [3:0] $end
$var reg 1 ` mem_write $end
$var reg 1 H reg_write $end
$var reg 1 ? s_b $end
$var reg 2 -" s_data_write [1:0] $end
$var reg 1 7 s_ext $end
$var reg 2 ." s_npc [1:0] $end
$var reg 2 /" s_num_write [1:0] $end
$upscope $end
$scope module DM $end
$var wire 1 " clock $end
$var wire 32 0" data_out [31:0] $end
$var wire 1 ] mem_write $end
$var wire 32 1" data_in [31:0] $end
$var wire 32 2" address [31:0] $end
$upscope $end
$scope module EXE_MEM $end
$var wire 32 3" alu_in [31:0] $end
$var wire 1 " clock $end
$var wire 32 4" data_in [31:0] $end
$var wire 1 % reset $end
$var wire 2 5" s_data_write_in [1:0] $end
$var wire 1 G reg_write_in $end
$var wire 32 6" pc_4 [31:0] $end
$var wire 5 7" num_write_in [4:0] $end
$var wire 1 _ mem_write_in $end
$var wire 1 c mem_read_in $end
$var reg 32 8" alu_out [31:0] $end
$var reg 32 9" data_out [31:0] $end
$var reg 1 a mem_read_out $end
$var reg 1 ] mem_write_out $end
$var reg 5 :" num_write_out [4:0] $end
$var reg 32 ;" pc_4_out [31:0] $end
$var reg 1 E reg_write_out $end
$var reg 2 <" s_data_write_out [1:0] $end
$upscope $end
$scope module EXT $end
$var wire 1 6 s_ext $end
$var wire 16 =" imm [15:0] $end
$var wire 32 >" ext_imm [31:0] $end
$upscope $end
$scope module GPR $end
$var wire 32 ?" a [31:0] $end
$var wire 32 @" b [31:0] $end
$var wire 1 " clock $end
$var wire 32 A" data_write [31:0] $end
$var wire 5 B" rt [4:0] $end
$var wire 5 C" rs [4:0] $end
$var wire 1 D reg_write $end
$var wire 5 D" num_write [4:0] $end
$upscope $end
$scope module HAZARD $end
$var wire 1 " clock $end
$var wire 1 % reset $end
$var wire 1 & zero $end
$var wire 2 E" s_npc [1:0] $end
$var wire 1 + s_i_instruction_ID $end
$var wire 5 F" rt_ID [4:0] $end
$var wire 5 G" rs_ID [4:0] $end
$var wire 5 H" num_write_EXE [4:0] $end
$var wire 1 b mem_read_ID $end
$var wire 1 c mem_read_EXE $end
$var wire 1 I" flag1 $end
$var wire 1 J" flag $end
$var reg 1 m id_exe_flush $end
$var reg 1 l if_id_flush $end
$var reg 1 k if_id_write $end
$var reg 1 O pc_write $end
$upscope $end
$scope module ID_EXE $end
$var wire 1 " clock $end
$var wire 32 K" data_1 [31:0] $end
$var wire 32 L" data_2 [31:0] $end
$var wire 32 M" ext_imm_in [31:0] $end
$var wire 1 m id_exe_flush $end
$var wire 5 N" num_write_in [4:0] $end
$var wire 1 % reset $end
$var wire 1 + s_i_instruction_in $end
$var wire 2 O" s_forwardB3 [1:0] $end
$var wire 2 P" s_forwardB2 [1:0] $end
$var wire 2 Q" s_forwardA3 [1:0] $end
$var wire 2 R" s_forwardA2 [1:0] $end
$var wire 2 S" s_data_write_in [1:0] $end
$var wire 1 = s_b_in $end
$var wire 5 T" rt_in [4:0] $end
$var wire 5 U" rs_in [4:0] $end
$var wire 1 F reg_write_in $end
$var wire 32 V" pc_4 [31:0] $end
$var wire 6 W" op_in [5:0] $end
$var wire 1 ^ mem_write_in $end
$var wire 1 b mem_read_in $end
$var wire 4 X" aluop_in [3:0] $end
$var reg 4 Y" aluop_out [3:0] $end
$var reg 32 Z" data_1_out [31:0] $end
$var reg 32 [" data_2_out [31:0] $end
$var reg 32 \" ext_imm_out [31:0] $end
$var reg 1 c mem_read_out $end
$var reg 1 _ mem_write_out $end
$var reg 5 ]" num_write_out [4:0] $end
$var reg 6 ^" op_out [5:0] $end
$var reg 32 _" pc_4_out [31:0] $end
$var reg 1 G reg_write_out $end
$var reg 5 `" rs_out [4:0] $end
$var reg 5 a" rt_out [4:0] $end
$var reg 1 > s_b_out $end
$var reg 2 b" s_data_write_out [1:0] $end
$var reg 2 c" s_forwardA2_out [1:0] $end
$var reg 2 d" s_forwardA3_out [1:0] $end
$var reg 2 e" s_forwardB2_out [1:0] $end
$var reg 2 f" s_forwardB3_out [1:0] $end
$var reg 1 , s_i_instruction_out $end
$upscope $end
$scope module IF_ID $end
$var wire 4 g" aluop_in [3:0] $end
$var wire 1 " clock $end
$var wire 1 l if_id_flush $end
$var wire 1 k if_id_write $end
$var wire 1 d mem_read_in $end
$var wire 1 ` mem_write_in $end
$var wire 6 h" op_in [5:0] $end
$var wire 1 H reg_write_in $end
$var wire 1 % reset $end
$var wire 1 ? s_b_in $end
$var wire 2 i" s_data_write_in [1:0] $end
$var wire 1 7 s_ext_in $end
$var wire 1 - s_i_instruction_in $end
$var wire 2 j" s_npc_in [1:0] $end
$var wire 2 k" s_num_write_in [1:0] $end
$var wire 32 l" pc_4 [31:0] $end
$var wire 32 m" instruction [31:0] $end
$var reg 4 n" aluop_out [3:0] $end
$var reg 16 o" imm [15:0] $end
$var reg 26 p" instr_index [25:0] $end
$var reg 1 b mem_read_out $end
$var reg 1 ^ mem_write_out $end
$var reg 6 q" op_out [5:0] $end
$var reg 32 r" pc_4_out [31:0] $end
$var reg 5 s" rd [4:0] $end
$var reg 1 F reg_write_out $end
$var reg 5 t" rs [4:0] $end
$var reg 5 u" rt [4:0] $end
$var reg 1 = s_b_out $end
$var reg 2 v" s_data_write_out [1:0] $end
$var reg 1 6 s_ext_out $end
$var reg 1 + s_i_instruction_out $end
$var reg 2 w" s_npc_out [1:0] $end
$var reg 2 x" s_num_write_out [1:0] $end
$upscope $end
$scope module IM $end
$var wire 32 y" instruction [31:0] $end
$var wire 32 z" pc [31:0] $end
$upscope $end
$scope module MEM_WB $end
$var wire 32 {" alu_in [31:0] $end
$var wire 1 " clock $end
$var wire 32 |" mem_in [31:0] $end
$var wire 5 }" num_write_in [4:0] $end
$var wire 32 ~" pc_4 [31:0] $end
$var wire 1 E reg_write_in $end
$var wire 1 % reset $end
$var wire 2 !# s_data_write_in [1:0] $end
$var reg 32 "# alu_out [31:0] $end
$var reg 32 ## mem_out [31:0] $end
$var reg 5 $# num_write_out [4:0] $end
$var reg 32 %# pc_4_out [31:0] $end
$var reg 1 D reg_write_out $end
$var reg 2 &# s_data_write_out [1:0] $end
$upscope $end
$scope module NPC $end
$var wire 26 '# instr_index [25:0] $end
$var wire 32 (# pc_gpr [31:0] $end
$var wire 2 )# s_npc [1:0] $end
$var wire 1 & zero $end
$var wire 32 *# pc [31:0] $end
$var reg 32 +# npc [31:0] $end
$upscope $end
$scope module PC $end
$var wire 1 " clock $end
$var wire 32 ,# npc [31:0] $end
$var wire 1 O pc_write $end
$var wire 1 % reset $end
$var reg 32 -# pc [31:0] $end
$upscope $end
$scope module SIDE_ROAD $end
$var wire 5 .# num_write_EXE [4:0] $end
$var wire 5 /# num_write_ID [4:0] $end
$var wire 5 0# num_write_MEM [4:0] $end
$var wire 5 1# num_write_WB [4:0] $end
$var wire 6 2# op_EXE [5:0] $end
$var wire 6 3# op_ID [5:0] $end
$var wire 1 G reg_write_EXE $end
$var wire 1 E reg_write_MEM $end
$var wire 1 D reg_write_WB $end
$var wire 5 4# rs_EXE [4:0] $end
$var wire 5 5# rs_ID [4:0] $end
$var wire 5 6# rt_EXE [4:0] $end
$var wire 5 7# rt_ID [4:0] $end
$var wire 1 8# s_i_instruction_EXE $end
$var wire 2 9# s_forwardB3 [1:0] $end
$var wire 2 :# s_forwardB2 [1:0] $end
$var wire 2 ;# s_forwardA3 [1:0] $end
$var wire 2 <# s_forwardA2 [1:0] $end
$upscope $end
$upscope $end
$upscope $end
$enddefinitions $end
#50
$dumpvars
b0 <#
b10 ;#
b0 :#
b11 9#
z8#
b0 7#
b0 6#
b0 5#
b0 4#
b0 3#
b0 2#
b0 1#
b0 0#
b0 /#
b0 .#
b11000000000000 -#
b11000000000100 ,#
b11000000000100 +#
b11000000000000 *#
b11 )#
b0 (#
b0 '#
b0 &#
b0 %#
b0 $#
b0 ##
b0 "#
b0 !#
b0 ~"
b0 }"
bx |"
b0 {"
b11000000000000 z"
b10101100000000100000000000000000 y"
b0 x"
b11 w"
bx v"
b0 u"
b0 t"
b0 s"
b0 r"
b0 q"
b0 p"
b0 o"
bx n"
b10101100000000100000000000000000 m"
b11000000000100 l"
b0 k"
b11 j"
b1 i"
b101011 h"
b1 g"
bx f"
bx e"
bx d"
bx c"
b0 b"
b0 a"
b0 `"
b0 _"
b0 ^"
b0 ]"
b0 \"
b0 ["
b0 Z"
bx Y"
bx X"
b0 W"
b0 V"
b0 U"
b0 T"
bx S"
b0 R"
b10 Q"
b0 P"
b11 O"
b0 N"
b0 M"
b0 L"
b0 K"
xJ"
0I"
b0 H"
b0 G"
b0 F"
b11 E"
b0 D"
b0 C"
b0 B"
b0 A"
b0 @"
b0 ?"
b0 >"
b0 ="
b0 <"
b0 ;"
b0 :"
b0 9"
b0 8"
b0 7"
b0 6"
b0 5"
b0 4"
b0 3"
b0 2"
b0 1"
bx 0"
b0 /"
b11 ."
b1 -"
b1 ,"
b101011 +"
b0 *"
b0 )"
b0 ("
b0 '"
bx &"
b0 %"
b0 $"
b0 #"
1""
b0 !"
b0 ~
b0 }
b0 |
b0 {
b0 z
b0 y
b0 x
b1 w
bx v
bx u
b0 t
b0 s
b0 r
b0 q
b0 p
b0 o
b0 n
0m
0l
1k
b0 j
b0 i
b10101100000000100000000000000000 h
b0 g
bx f
b0 e
0d
xc
0b
0a
1`
0_
0^
0]
b11000000000100 \
b0 [
b0 Z
b0 Y
b0 X
b101011 W
b0 V
b0 U
b11000000000000 T
b0 S
b0 R
b0 Q
b0 P
1O
b0 N
b0 M
b0 L
b0 K
b0 J
b0 I
0H
0G
1F
0E
0D
b0 C
b0 B
b0 A
b0 @
1?
x>
x=
b1 <
b0 ;
bx :
b0 9
b0 8
17
x6
b0 5
bx 4
b10 3
bx 2
b0 1
bx 0
b11 /
bx .
0-
x,
x+
b11 *
b11 )
b0 (
b0 '
1&
0%
bz $
bz #
1"
bz !
$end
#100
0"
#150
0&
0J"
0?
b0 w
b0 ,"
b0 g"
0`
1H
b1 (
b1 /"
b1 k"
b10 o
b10 L"
b0 W
b0 +"
b0 h"
b100000 n
b100000 *"
b10 1
b10 P"
b10 :#
b10 Z
b10 N"
b10 /#
b10000110000100000100000 h
b10000110000100000100000 m"
b10000110000100000100000 y"
b1 3
b1 Q"
b1 ;#
b11000000001000 \
b11000000001000 l"
b11000000001000 +#
b11000000001000 ,#
bx e
bx ##
xa
b0 0
b0 e"
b0 4
b0 c"
b11 .
b11 f"
b10 2
b10 d"
bx ;
bx 5"
bx b"
1G
0c
0+
b10 J
b10 @"
b10 @
b10 B"
b10 F"
b10 T"
b10 u"
b10 7#
b100000000000000000 i
b100000000000000000 p"
b100000000000000000 '#
b11000000000100 R
b11000000000100 V"
b11000000000100 r"
1^
b1 :
b1 S"
b1 v"
16
0F
1=
b101011 U
b101011 W"
b101011 q"
b101011 3#
b1 u
b1 X"
b1 n"
b11000000000100 T
b11000000000100 z"
b11000000000100 *#
b11000000000100 -#
1"
1%
#200
0"
#250
b11 w
b11 ,"
b11 g"
b100011 n
b100011 *"
b10 3
b10 Q"
b10 ;#
b10 p
b10 K"
b10 (#
b101000010010000000100011 h
b101000010010000000100011 m"
b101000010010000000100011 y"
b10 5
b10 R"
b10 <#
b1 Z
b1 N"
b1 /#
b11 o
b11 L"
b11000000001100 \
b11000000001100 l"
b11000000001100 +#
b11000000001100 ,#
b100000100000 q
b100000100000 >"
b100000100000 M"
b10 g
b10 4"
b11000000001000 T
b11000000001000 z"
b11000000001000 *#
b11000000001000 -#
b1 N
b1 s"
b11 J
b11 @"
b11 @
b11 B"
b11 F"
b11 T"
b11 u"
b11 7#
b10 L
b10 ?"
b10 B
b10 C"
b10 G"
b10 U"
b10 t"
b10 5#
b10000110000100000100000 i
b10000110000100000100000 p"
b10000110000100000100000 '#
b100000100000 j
b100000100000 ="
b100000100000 o"
b11000000001000 R
b11000000001000 V"
b11000000001000 r"
0^
b1 '
b1 x"
1F
0=
b0 U
b0 W"
b0 q"
b0 3#
b0 u
b0 X"
b0 n"
b101011 V
b101011 ^"
b101011 2#
b10 0
b10 e"
0,
b1 2
b1 d"
b1 v
b1 &"
b1 Y"
b10 [
b10 7"
b10 H"
b10 ]"
b10 .#
b10 K
b10 ["
b11000000000100 S
b11000000000100 6"
b11000000000100 _"
1_
b1 ;
b1 5"
b1 b"
1>
0G
b10 A
b10 a"
b10 6#
bx 9
bx <"
bx !#
1E
0a
1"
#300
0"
#350
0""
b100 w
b100 ,"
b100 g"
b0 /
b0 O"
b0 9#
b1 $"
b100100 n
b100100 *"
b11 !"
b10 }
b110000000000000000 %"
b1010010011100000100100 h
b1010010011100000100100 m"
b1010010011100000100100 y"
b10 {
b10 |
b101 z
b101 )"
b101 3"
b11 g
b11 4"
b101 '"
b11111111111111111111111111111111 #"
b101 ("
b11 t
b11 ~
b10 3
b10 Q"
b10 ;#
b100 Z
b100 N"
b100 /#
b1 o
b1 L"
b101 p
b101 K"
b101 (#
b10000000100011 q
b10000000100011 >"
b10000000100011 M"
b11000000010000 \
b11000000010000 l"
b11000000010000 +#
b11000000010000 ,#
bx 8
bx &#
1D
b10 Y
b10 :"
b10 }"
b10 0#
b10 I
b10 1"
b10 9"
b11000000000100 Q
b11000000000100 ;"
b11000000000100 ~"
1]
b1 9
b1 <"
b1 !#
0E
b0 V
b0 ^"
b0 2#
b10 4
b10 c"
b10 2
b10 d"
b0 v
b0 &"
b0 Y"
b1 [
b1 7"
b1 H"
b1 ]"
b1 .#
b100000100000 r
b100000100000 \"
b11 K
b11 ["
b10 M
b10 Z"
b11000000001000 S
b11000000001000 6"
b11000000001000 _"
0_
0>
1G
b11 A
b11 a"
b11 6#
b10 C
b10 `"
b10 4#
b100 N
b100 s"
b1 J
b1 @"
b1 @
b1 B"
b1 F"
b1 T"
b1 u"
b1 7#
b101 L
b101 ?"
b101 B
b101 C"
b101 G"
b101 U"
b101 t"
b101 5#
b101000010010000000100011 i
b101000010010000000100011 p"
b101000010010000000100011 '#
b10000000100011 j
b10000000100011 ="
b10000000100011 o"
b11000000001100 R
b11000000001100 V"
b11000000001100 r"
b11 u
b11 X"
b11 n"
b11000000001100 T
b11000000001100 z"
b11000000001100 *#
b11000000001100 -#
1"
#400
0"
#450
b101 w
b101 ,"
b101 g"
1""
b100101 n
b100101 *"
b1 3
b1 Q"
b1 ;#
b11 /
b11 O"
b11 9#
b1010000000000000000 %"
b111000010011000000100101 h
b111000010011000000100101 m"
b111000010011000000100101 y"
b101 t
b101 ~
b101 !"
b101 }
b0 $"
b111 Z
b111 N"
b111 /#
b1001 o
b1001 L"
b1 p
b1 K"
b1 (#
b11000000010100 \
b11000000010100 l"
b11000000010100 +#
b11000000010100 ,#
b11100000100100 q
b11100000100100 >"
b11100000100100 M"
b0 z
b0 )"
b0 3"
b101 g
b101 4"
b1010 '"
b0 #"
b1010 ("
b101 {
b101 |
b0 s
b0 A"
bx f
bx 0"
bx |"
b11000000010000 T
b11000000010000 z"
b11000000010000 *#
b11000000010000 -#
b111 N
b111 s"
b1001 J
b1001 @"
b1001 @
b1001 B"
b1001 F"
b1001 T"
b1001 u"
b1001 7#
b1 L
b1 ?"
b1 B
b1 C"
b1 G"
b1 U"
b1 t"
b1 5#
b1010010011100000100100 i
b1010010011100000100100 p"
b1010010011100000100100 '#
b11100000100100 j
b11100000100100 ="
b11100000100100 o"
b11000000010000 R
b11000000010000 V"
b11000000010000 r"
b100 u
b100 X"
b100 n"
b0 .
b0 f"
b11 v
b11 &"
b11 Y"
b100 [
b100 7"
b100 H"
b100 ]"
b100 .#
b10000000100011 r
b10000000100011 \"
b1 K
b1 ["
b101 M
b101 Z"
b11000000001100 S
b11000000001100 6"
b11000000001100 _"
b1 A
b1 a"
b1 6#
b101 C
b101 `"
b101 4#
b1 Y
b1 :"
b1 }"
b1 0#
b11 I
b11 1"
b11 9"
b101 y
b101 2"
b101 8"
b101 {"
b11000000001000 Q
b11000000001000 ;"
b11000000001000 ~"
0]
1E
b10 X
b10 D"
b10 $#
b10 1#
b11000000000100 P
b11000000000100 %#
b1 8
b1 &#
0D
1"
#500
0"
#550
0""
b1010 w
b1010 ,"
b1010 g"
b10010000000000000000 %"
b1101 !"
b1 }
b1 $"
b0 3
b0 Q"
b0 ;#
b101010 n
b101010 *"
b0 1
b0 P"
b0 :#
b101 s
b101 A"
b1001 t
b1001 ~
b1110 '"
b11111111111111111111111111111100 #"
b1110 ("
b101 {
b101 |
b101001001000100000101010 h
b101001001000100000101010 m"
b101001001000100000101010 y"
b10 f
b10 0"
b10 |"
b1001 g
b1001 4"
b1 z
b1 )"
b1 3"
b110 Z
b110 N"
b110 /#
b101 o
b101 L"
b111 p
b111 K"
b111 (#
b11000000100101 q
b11000000100101 >"
b11000000100101 M"
b11000000011000 \
b11000000011000 l"
b11000000011000 +#
b11000000011000 ,#
b1 X
b1 D"
b1 $#
b1 1#
b101 x
b101 "#
b11000000001000 P
b11000000001000 %#
1D
b100 Y
b100 :"
b100 }"
b100 0#
b101 I
b101 1"
b101 9"
b0 y
b0 2"
b0 8"
b0 {"
b11000000001100 Q
b11000000001100 ;"
b11000000001100 ~"
b11 .
b11 f"
b1 2
b1 d"
b100 v
b100 &"
b100 Y"
b111 [
b111 7"
b111 H"
b111 ]"
b111 .#
b11100000100100 r
b11100000100100 \"
b1001 K
b1001 ["
b1 M
b1 Z"
b11000000010000 S
b11000000010000 6"
b11000000010000 _"
b1001 A
b1001 a"
b1001 6#
b1 C
b1 `"
b1 4#
b110 N
b110 s"
b1 J
b1 @"
b1 @
b1 B"
b1 F"
b1 T"
b1 u"
b1 7#
b111 L
b111 ?"
b111 B
b111 C"
b111 G"
b111 U"
b111 t"
b111 5#
b111000010011000000100101 i
b111000010011000000100101 p"
b111000010011000000100101 '#
b11000000100101 j
b11000000100101 ="
b11000000100101 o"
b11000000010100 R
b11000000010100 V"
b11000000010100 r"
b101 u
b101 X"
b101 n"
b11000000010100 T
b11000000010100 z"
b11000000010100 *#
b11000000010100 -#
1"
#600
0"
#650
0&
b0 o
b0 L"
b10 3
b10 Q"
b10 ;#
b101 !"
b1010000000000000000 %"
b10000111000100000101010 h
b10000111000100000101010 m"
b10000111000100000101010 y"
b1 {
b1 |
b110 '"
b11111111111111111111111111111100 #"
b110 ("
b101 t
b101 ~
b0 s
b0 A"
b10001 Z
b10001 N"
b10001 /#
b101 p
b101 K"
b101 (#
b11000000011100 \
b11000000011100 l"
b11000000011100 +#
b11000000011100 ,#
b11111111111111111000100000101010 q
b11111111111111111000100000101010 >"
b11111111111111111000100000101010 M"
b101 z
b101 )"
b101 3"
b101 g
b101 4"
b11000000011000 T
b11000000011000 z"
b11000000011000 *#
b11000000011000 -#
b10001 N
b10001 s"
b100 J
b100 @"
b100 @
b100 B"
b100 F"
b100 T"
b100 u"
b100 7#
b101 L
b101 ?"
b101 B
b101 C"
b101 G"
b101 U"
b101 t"
b101 5#
b101001001000100000101010 i
b101001001000100000101010 p"
b101001001000100000101010 '#
b1000100000101010 j
b1000100000101010 ="
b1000100000101010 o"
b11000000011000 R
b11000000011000 V"
b11000000011000 r"
b1010 u
b1010 X"
b1010 n"
b0 0
b0 e"
b0 2
b0 d"
b101 v
b101 &"
b101 Y"
b110 [
b110 7"
b110 H"
b110 ]"
b110 .#
b11000000100101 r
b11000000100101 \"
b101 K
b101 ["
b111 M
b111 Z"
b11000000010100 S
b11000000010100 6"
b11000000010100 _"
b1 A
b1 a"
b1 6#
b111 C
b111 `"
b111 4#
b111 Y
b111 :"
b111 }"
b111 0#
b1001 I
b1001 1"
b1001 9"
b1 y
b1 2"
b1 8"
b1 {"
b11000000010000 Q
b11000000010000 ;"
b11000000010000 ~"
b100 X
b100 D"
b100 $#
b100 1#
b10 e
b10 ##
b0 x
b0 "#
b11000000001100 P
b11000000001100 %#
1"
#700
0"
#750
1-
0H
b0 *
b0 ."
b0 j"
b11 w
b11 ,"
b11 g"
b0 %"
b11 o
b11 L"
b100 W
b100 +"
b100 h"
b101 n
b101 *"
b1 s
b1 A"
b0 }
b0 $"
b0 t
b0 ~
b10 1
b10 P"
b10 :#
b10010001001110000000000000101 h
b10010001001110000000000000101 m"
b10010001001110000000000000101 y"
bx f
bx 0"
bx |"
b101 '"
b101 #"
b101 ("
b101 {
b101 |
b0 z
b0 )"
b0 3"
b0 g
b0 4"
b10 p
b10 K"
b10 (#
b11000000100000 \
b11000000100000 l"
b11000000100000 +#
b11000000100000 ,#
b111 X
b111 D"
b111 $#
b111 1#
b1 x
b1 "#
b11000000010000 P
b11000000010000 %#
b110 Y
b110 :"
b110 }"
b110 0#
b101 I
b101 1"
b101 9"
b101 y
b101 2"
b101 8"
b101 {"
b11000000010100 Q
b11000000010100 ;"
b11000000010100 ~"
b10 2
b10 d"
b1010 v
b1010 &"
b1010 Y"
b10001 [
b10001 7"
b10001 H"
b10001 ]"
b10001 .#
b11111111111111111000100000101010 r
b11111111111111111000100000101010 \"
b0 K
b0 ["
b101 M
b101 Z"
b11000000011000 S
b11000000011000 6"
b11000000011000 _"
b100 A
b100 a"
b100 6#
b101 C
b101 `"
b101 4#
b11 J
b11 @"
b11 @
b11 B"
b11 F"
b11 T"
b11 u"
b11 7#
b10 L
b10 ?"
b10 B
b10 C"
b10 G"
b10 U"
b10 t"
b10 5#
b10000111000100000101010 i
b10000111000100000101010 p"
b10000111000100000101010 '#
b11000000011100 R
b11000000011100 V"
b11000000011100 r"
b11000000011100 T
b11000000011100 z"
b11000000011100 *#
b11000000011100 -#
1"
#800
0"
#850
0k
0O
1m
b11 *
b11 ."
b11 j"
1H
b0 (
b0 /"
b0 k"
1?
b1 w
b1 ,"
b1 g"
1J"
b1 z
b1 )"
b1 3"
b1001 W
b1001 +"
b1001 h"
b100100 n
b100100 *"
b0 3
b0 Q"
b0 ;#
b10 }
b1 $"
b110000000000000000 %"
b100100111010100000000001100100 h
b100100111010100000000001100100 m"
b100100111010100000000001100100 y"
b1 5
b1 R"
b1 <#
b11 t
b11 ~
b11 !"
b101 s
b101 A"
b0 Z
b0 N"
b0 /#
b1 o
b1 L"
b0 p
b0 K"
b0 (#
b101 q
b101 >"
b101 M"
b11000000100100 \
b11000000100100 l"
b11000000100100 +#
b11000000100100 ,#
b11 g
b11 4"
b101 '"
b11111111111111111111111111111111 #"
b101 ("
b10 {
b10 |
b10 f
b10 0"
b10 |"
b11000000100000 T
b11000000100000 z"
b11000000100000 *#
b11000000100000 -#
1+
b0 N
b0 s"
b1 J
b1 @"
b111 @
b111 B"
b111 F"
b111 T"
b111 u"
b111 7#
b10001 L
b10001 ?"
b10001 B
b10001 C"
b10001 G"
b10001 U"
b10001 t"
b10001 5#
b10001001110000000000000101 i
b10001001110000000000000101 p"
b10001001110000000000000101 '#
b101 j
b101 ="
b101 o"
b11000000100000 R
b11000000100000 V"
b11000000100000 r"
0F
b100 U
b100 W"
b100 q"
b100 3#
b11 u
b11 X"
b11 n"
b0 )
b0 E"
b0 w"
b0 )#
b10 0
b10 e"
b11 K
b11 ["
b10 M
b10 Z"
b11000000011100 S
b11000000011100 6"
b11000000011100 _"
b11 A
b11 a"
b11 6#
b10 C
b10 `"
b10 4#
b10001 Y
b10001 :"
b10001 }"
b10001 0#
b0 I
b0 1"
b0 9"
b0 y
b0 2"
b0 8"
b0 {"
b11000000011000 Q
b11000000011000 ;"
b11000000011000 ~"
b110 X
b110 D"
b110 $#
b110 1#
bx e
bx ##
b101 x
b101 "#
b11000000010100 P
b11000000010100 %#
1"
#900
0"
#950
1l
1I"
b11000000110100 \
b11000000110100 l"
b11000000110100 +#
b11000000110100 ,#
1&
0k
1O
0m
0J"
1""
b0 z
b0 )"
b0 3"
b0 !"
b0 $"
b0 %"
b0 s
b0 A"
b1 p
b1 K"
b1 (#
b0 t
b0 ~
b0 }
b0 g
b0 4"
b0 '"
b0 #"
b0 ("
b0 {
b0 |
b1 3
b1 Q"
b1 ;#
b10001 X
b10001 D"
b10001 $#
b10001 1#
b10 e
b10 ##
b0 x
b0 "#
b11000000011000 P
b11000000011000 %#
b11 I
b11 1"
b11 9"
b1 y
b1 2"
b1 8"
b1 {"
b11000000011100 Q
b11000000011100 ;"
b11000000011100 ~"
b0 [
b0 7"
b0 H"
b0 ]"
b0 .#
b0 r
b0 \"
b0 K
b0 ["
b0 M
b0 Z"
b0 S
b0 6"
b0 _"
b0 A
b0 a"
b0 6#
b0 C
b0 `"
b0 4#
0G
1"
#1000
0"
